
  {
    "name":       "Rick Calder",
    "phone":      "905.515.4951",
    "tel":        "19055154951",
    "email":      "rick@calderonline.com",
    "website":    "http://www.calderonline.com",
    "add1":       "598 Main Street East",
    "add2":       "",
    "city":       "Hamilton",
    "prov":       "ON",
    "postal":     "L8M 1J6",
    "intro":      "<p>I am a dedicated and loyal employee who believes my personal success is directly related to that of my employer. I am self-educated in software development, while I believe a good education is a strong starting point, I do not believe a degree is an end point in our industry. Learning new software, techniques and abilities is paramount to being successful in the web industry. Browser capabilities and new tools emerge so quickly that you must be continuously learning and expanding your knowledge. To that end I spend a significant amount of time dedicated to learning and honing my craft.<\/p><p>I am a strong believer in teamwork and everyone doing what is necessary to create a great finished product, regardless of what that is. The words &#8220;Not my job&#8221; are not in my vocabulary.<\/p>",
    "jobs":[
      {
        "company":  "Wise & Hammer",
        "title":    "Director of Support Services",
        "start":    "2014",
        "end":      "2016",
        "duties":[
          {
            "duty": "Oversee support division of Wise & Hammer which provides technical support and training to clients using open source software such as WordPress and Drupal. Support includes updating of software and testing for compatibility among plugins as well as training clients on the use of their sites. We also do periodic reviews of client sites to ensure everything is running smoothly and no browser updates or client changes have introduced issues."
          },
          {
            "duty": "Help the development team test new sites for browser compatibility, accessibility and overall site performance as well as assist in development of sites and software when necessary."
          },
          {
            "duty": "Create, document and maintain processes to allow the support division to do their jobs in a timely and efficient manner."
          },
          {
            "duty": "Direct support staff in their daily duties and assign tasks on a priority basis."
          },
          {
            "duty": "Consult with management regarding the tools and hardware necessary for the support division to operate."
          }
        ]
      },
      {
        "company":  "REfficient Inc.",
        "title":    "IT Manager - Web Developer",
        "start":    "2011",
        "end":      "2013",
        "duties":[
          {
            "duty": "Development and maintenance of company website using the Codeigniter PHP framework with a MySQL database. This site is a complete bespoke e-commerce solution with asset management, blogging and a product notification system. Migrated the original site from an ASP.NET platform using a Microsoft Access database."
          },
          {
            "duty": "Creation of all advertising, print media and e-mail advertising campaigns."
          },
          {
            "duty": "Technology support and training for staff, including input on purchase of new equipment and software."
          },
          {
            "duty": "Installation and maintenance of company network and telephone system."
          }
        ]
      },
      {
        "company":  "Langton Mechanical",
        "title":    "IT Manager",
        "start":    "2009",
        "end":      "2014",
        "duties":[
          {
            "duty": "Installation and maintenance of company network."
          },
          {
            "duty": "Management of company domain and e-mails"
          },
          {
            "duty": "IT support including maintenance of computers, software installation and updating and basic troubleshooting when issues occured (virus removal, etc)."
          },
          {
            "duty": "Programming of roadside LCD sign using custom software."
          },
          {
            "duty": "Design and creation of full motion advertising for LCD sign using Photoshop and After Effects."
          }
        ]
      },
      {
        "company":  "Pegasus Direct Mail Worx",
        "title":    "IT Manager - Data Programmer",
        "start":    "2002",
        "end":      "2006",
        "duties":[
          {
            "duty": "Managed all production of the data and addressing departments, including overseeing the staff and maintenance of the equipment."
          },
          {
            "duty": "Developed a process, including researching and purchasing the appropriate software, that allowed the company to win the contract to produce the property tax bills for the City of Burlington. This included programming a personalized bill with 208 variable data fields printed 2 sides on between 1 and 3 pages per bill."
          },
          {
            "duty": "Designed and coded highly personalized direct mail advertising campaigns for reproduction on laser and high speed inkjet printers."
          },
          {
            "duty": "Created, coded and maintained corporate website and managed company domain and emails."
          },
          {
            "duty": "IT support including maintenance of computers, software installation and updating and basic troubleshooting when issues occured (virus removal, etc)."
          },
          {
            "duty": "Consulted with ownership on major purchases in the IT and production departments."
          }
        ]
      }
    ],
    "skills":[
      {
        "category": "Software",
        "list":[
          {
            "skill":  "Adobe Photoshop"
          },
          {
            "skill":  "Adobe Illustrator*"
          },
          {
            "skill":  "Adobe After Effects*"
          },
          {
            "skill":  "Microsoft Office"
          },
          {
            "skill":  "GIT"
          }
        ]
      },
      {
        "category": "Languages & Databases",
        "list":[
          {
            "skill":  "HTML & CSS"
          },
          {
            "skill":  "PHP"
          },
          {
            "skill":  "Javascript"
          },
          {
            "skill":  "Visual Basic"
          },
          {
            "skill":  "ASP.NET"
          },
          {
            "skill":  "MySQL"
          },
          {
            "skill":  "MSSQL*"
          },
          {
            "skill":  "MongoDb*"
          }
        ]
      },
      {
        "category": "Frameworks & Stuff",
        "list":[
          {
            "skill":  "jQuery"
          },
          {
            "skill":  "Codeigniter"
          },
          {
            "skill":  "Laravel"
          },
          {
            "skill":  "Node.js"
          },
          {
            "skill":  "Angular.js*"
          },
          {
            "skill":  "Rails*"
          },
          {
            "skill":  "React/Redux*"
          }
        ]
      }
    ],
    "social": [
      {
        "site":   "LinkedIn",
        "url":    "https://www.linkedin.com/in/rickgcalder",
        "icon":   "fa-linkedin",
        "colour":  "#007bb5"
      },
      {
        "site":   "Github",
        "url":    "https://www.github.com/calder12",
        "icon":   "fa-github",
        "colour":  "#000"
      },
      {
        "site":   "Stack Overflow",
        "url":    "http://www.stackoverflow.com/users/1726511",
        "icon":   "fa-stack-overflow",
        "colour":  "#f69c55"
      },
      {
        "site":   "Medium",
        "url":    "https://www.medium.com/@calder12",
        "icon":   "fa-medium",
        "colour":  "#00ab6b"
      },
      {
        "site":   "Twitter",
        "url":    "https://www.twitter.com/calder12",
        "icon":   "fa-twitter",
        "colour":  "#55acee"
      }
    ]
  }
